STATS506 Group Project
…
R

We first process the data before fitting a model.

## # A tibble: 1,255 x 14
##     SEQN   CVH smoking Blood_pressure phy_act blood_cho blood_glu   BMI
##    <dbl> <dbl>   <dbl>          <dbl>   <dbl>     <dbl>     <dbl> <dbl>
##  1 31132     5       1              0       1         1         0     1
##  2 31134     4       1              0       0         1         1     0
##  3 31150     3       0              0       1         1         1     0
##  4 31153     4       0              0       1         1         1     0
##  5 31155     5       1              0       1         1         1     0
##  6 31158     4       0              0       1         1         0     1
##  7 31162     3       1              1       0         0         0     0
##  8 31167     3       0              0       1         0         1     0
##  9 31183     6       1              1       1         1         1     0
## 10 31187     5       1              1       1         1         1     0
## #  with 1,245 more rows, and 6 more variables: Diet <dbl>, gender <dbl>,
## #   age <dbl>, race <dbl>, education <dbl>, insurance <dbl>
…
